{
    "identityPoolName": "awstrial05d3a77d_identitypool_05d3a77d",
    "allowUnauthenticatedIdentities": false,
    "thirdPartyAuth": false,
    "lambdaLogPolicy": "cognito05d3a77d_lambda_log_policy",
    "openIdLambdaRoleName": "cognito05d3a77d_openid_lambda_role",
    "openIdRolePolicy": "cognito05d3a77d_openid_pass_role_policy",
    "openIdLambdaIAMPolicy": "cognito05d3a77d_openid_lambda_iam_policy",
    "openIdLogPolicy": "cognito05d3a77d_openid_lambda_log_policy",
    "userPoolName": "awstrial05d3a77d_userpool_05d3a77d",
    "autoVerifiedAttributes": [
        "email"
    ],
    "mfaConfiguration": "OFF",
    "mfaTypes": [
        "SMS Text Message"
    ],
    "roleName": "cognito05d3a77d_sns-role",
    "roleExternalId": "cognito05d3a77d_role_external_id",
    "policyName": "cognito05d3a77d-sns-policy",
    "smsAuthenticationMessage": "Your authentication code is {####}",
    "smsVerificationMessage": "Your verification code is {####}",
    "emailVerificationSubject": "Your verification code",
    "emailVerificationMessage": "Your verification code is {####}",
    "defaultPasswordPolicy": false,
    "passwordPolicyMinLength": 8,
    "passwordPolicyCharacters": [
        "Requires Lowercase",
        "Requires Uppercase",
        "Requires Numbers",
        "Requires Symbols"
    ],
    "requiredAttributes": [
        "email"
    ],
    "userpoolClientName": "cognito05d3a77d_app_client",
    "userpoolClientGenerateSecret": true,
    "userpoolClientRefreshTokenValidity": 30,
    "userpoolClientReadAttributes": [
        "email"
    ],
    "mfaLambdaRole": "cognito05d3a77d_totp_lambda_role",
    "mfaLambdaLogPolicy": "cognito05d3a77d_totp_lambda_log_policy",
    "mfaPassRolePolicy": "cognito05d3a77d_totp_pass_role_policy",
    "mfaLambdaIAMPolicy": "cognito05d3a77d_totp_lambda_iam_policy",
    "userpoolClientLambdaRole": "cognito05d3a77d_userpoolclient_lambda_role",
    "userpoolClientLogPolicy": "cognito05d3a77d_userpoolclient_lambda_log_policy",
    "userpoolClientLambdaPolicy": "cognito05d3a77d_userpoolclient_lambda_iam_policy",
    "userpoolClientSetAttributes": false,
    "useDefault": "manual",
    "authSelections": "identityPoolAndUserPool",
    "resourceName": "cognito05d3a77d",
    "unAuthRoleName": "awstrial-20181226195048-unauthRole",
    "authRoleName": "awstrial-20181226195048-authRole",
    "unAuthRoleArn": "arn:aws:iam::964297824059:role/awstrial-20181226195048-unauthRole",
    "authRoleArn": "arn:aws:iam::964297824059:role/awstrial-20181226195048-authRole"
}